# Fdb version 3
["pdflatex"] 1423867684 "project2.tex" "project2.pdf" "project2" 1423867687
  "/usr/local/texlive/2014/texmf-dist/tex/generic/ifxetex/ifxetex.sty" 1284331290 1458 43ab4710dc82f3edeabecd0d099626b2 ""
  "/usr/local/texlive/2014/texmf-dist/tex/generic/oberdiek/ifpdf.sty" 1303254447 7140 ece2cc23d9f20e1f53975ac167f42d3e ""
  "/usr/local/texlive/2014/texmf-dist/tex/generic/oberdiek/ifvtex.sty" 1335995445 6797 68c89f65e01894df882dd523d3fc0a8f ""
  "/usr/local/texlive/2014/texmf-dist/tex/latex/amsfonts/amsfonts.sty" 1359763108 5949 3f3fd50a8cc94c3d4cbf4fc66cd3df1c ""
  "/usr/local/texlive/2014/texmf-dist/tex/latex/amsfonts/amssymb.sty" 1359763108 13829 94730e64147574077f8ecfea9bb69af4 ""
  "/usr/local/texlive/2014/texmf-dist/tex/latex/amsfonts/umsa.fd" 1359763108 961 6518c6525a34feb5e8250ffa91731cff ""
  "/usr/local/texlive/2014/texmf-dist/tex/latex/amsfonts/umsb.fd" 1359763108 961 d02606146ba5601b5645f987c92e6193 ""
  "/usr/local/texlive/2014/texmf-dist/tex/latex/amsmath/amsbsy.sty" 1362954379 2412 2d98314dc5be38f455f8890deeb2d091 ""
  "/usr/local/texlive/2014/texmf-dist/tex/latex/amsmath/amsgen.sty" 1362954379 4357 ad30ad08920902fc9b38caf35a3b0496 ""
  "/usr/local/texlive/2014/texmf-dist/tex/latex/amsmath/amsmath.sty" 1362954379 79178 b2e326c351e876df0e5e23df2e02441b ""
  "/usr/local/texlive/2014/texmf-dist/tex/latex/amsmath/amsopn.sty" 1362954379 4082 502152465aedb8f6a3c4b0b7c0fa8ae5 ""
  "/usr/local/texlive/2014/texmf-dist/tex/latex/amsmath/amstext.sty" 1362954379 2637 846ebe982d3549c7ede7ce135456f54a ""
  "/usr/local/texlive/2014/texmf-dist/tex/latex/base/article.cls" 1399675188 20496 66dd832c447553f6776fbeac03bb0580 ""
  "/usr/local/texlive/2014/texmf-dist/tex/latex/base/size11.clo" 1399675188 8983 e08a9a7009d9a8f8c6507333f96e336e ""
  "/usr/local/texlive/2014/texmf-dist/tex/latex/geometry/geometry.sty" 1284422013 40502 e003406220954b0716679d7928aedd8a ""
  "/usr/local/texlive/2014/texmf-dist/tex/latex/graphics/graphics.sty" 1254151804 14183 42a8fc761b806986eef292369afc2988 ""
  "/usr/local/texlive/2014/texmf-dist/tex/latex/graphics/graphicx.sty" 1399675188 7911 bf0a64f89bfb668c239ddf6324bf4afb ""
  "/usr/local/texlive/2014/texmf-dist/tex/latex/graphics/keyval.sty" 1399675188 2317 0ace13e225e9d95dd9defe947adc9fbb ""
  "/usr/local/texlive/2014/texmf-dist/tex/latex/graphics/trig.sty" 1156702488 3153 c50e6bd54d2dd3933fc52bcf369bec4a ""
  "/usr/local/texlive/2014/texmf-dist/tex/latex/latexconfig/graphics.cfg" 1278958963 3563 d35e897cae3b8c6848f6677b73370b54 ""
  "/usr/local/texlive/2014/texmf-dist/tex/latex/tools/enumerate.sty" 1399675188 3255 42d834dc82171769c16badd22df87021 ""
  "/usr/local/texlive/2014/texmf-dist/tex/xelatex/xetex-def/xetex.def" 1399065204 17159 a477269947c644113bd414c39e6f0de3 ""
  "Gibbs_L1.png" 1423862289 341446 3a9ba93ca4f5a65a8b8535aeed52b373 ""
  "Gibbs_L2.png" 1423867193 320924 32a809f76269350030d2fa3470950888 ""
  "PDE.png" 1423865204 300702 b2020abd7a12c385db639dac29d1ff2c ""
  "project2.aux" 1423867685 8 a94a2480d3289e625eea47cd1b285758 ""
  "project2.tex" 1423867672 1150 87151bf6eef3b850de9323a73b1f405c ""
  (generated)
  "project2.log"
  "project2.aux"
  "project2.pdf"
